^C:\USERS\FARMERD\PROJECTS\IDEAS\LOGCPP\MAIN.CPP
C:\USERS\FARMERD\PROJECTS\IDEAS\LOGCPP\X64\DEBUG\VC140.PDB
C:\USERS\FARMERD\PROJECTS\IDEAS\LOGCPP\X64\DEBUG\VC140.IDB
C:\USERS\FARMERD\PROJECTS\IDEAS\LOGCPP\X64\DEBUG\MAIN.OBJ
